<svg width="70" height="80" viewBox="0 0 70 80" xmlns="http://www.w3.org/2000/svg">
    <g fill="none" fill-rule="evenodd">
        <path d="M15 0c-2.751 0-5 2.25-5 5v69.999C10 77.749 12.249 80 15 80h50c2.75 0 5-2.25 5-5.001v-55L50 0H15z" fill="#E1E4E6"/>
        <path d="M55 20h15L50 0v14.999C50 17.749 52.249 20 55 20" fill="#B0B6BC"/>
        <path fill="#CAD1D7" d="M70 34 55 19h15z"/>
        <path d="M60 66.416C60 67.838 58.876 69 57.5 69H2.498C1.124 69 0 67.838 0 66.416V40.584C0 39.162 1.124 38 2.499 38h55C58.876 38 60 39.162 60 40.584v25.832z" fill="#F05742"/>
        <path d="M14.657 48.695v5.33h3.364c1.35 0 2.419-1.264 2.419-2.593 0-1.496-1.07-2.737-2.42-2.737h-3.363zM12 47.478c0-.707.525-1.478 1.368-1.478h4.653C20.64 46 23 47.863 23 51.432c0 3.384-2.359 5.267-4.98 5.267h-3.362v2.826c0 .942-.564 1.475-1.29 1.475-.665 0-1.368-.533-1.368-1.475V47.478zM26.69 48.645v9.712h3.382c5.5 0 5.746-9.712 0-9.712H26.69zM25.408 61C24.734 61 24 60.61 24 59.658V47.344c0-.778.734-1.344 1.407-1.344h4.665c9.309 0 9.105 15 .183 15h-4.848zM43.66 48.821v3.445h5.182c.732 0 1.463.781 1.463 1.537 0 .716-.73 1.303-1.463 1.303h-5.183v4.552c0 .76-.506 1.342-1.218 1.342-.894 0-1.441-.583-1.441-1.342V47.344c0-.778.55-1.344 1.441-1.344h7.135c.895 0 1.424.566 1.424 1.344 0 .693-.53 1.474-1.424 1.474h-5.917v.003z" fill="#FEFEFE"/>
        <path d="M57.5 67.5H10V70h47.5c1.376 0 2.5-1.124 2.5-2.5V65c0 1.376-1.124 2.5-2.5 2.5" fill="#CAD1D7"/>
    </g>
</svg>
